としぁ,,,10,名詞,一般,*,*,*,*,としぁ,トシァ,トシァ
かるばぶ,,,100,名詞,一般,*,*,*,*,かるばぶ,カルバブ,カルバブ
toshi_a,,,10,名詞,一般,*,*,*,*,toshi-a,toshi-a,toshi-a
TOSHI_A,,,10,名詞,一般,*,*,*,*,toshi-a,toshi-a,toshi-a
sota_n,,,100,名詞,一般,*,*,*,*,sota,sota,sota
らこらこらこ〜ｗ,,,10,名詞,一般,*,*,*,*,らこらこらこ,ラコラコラコ,ラコラコラコ
らこらこらこ〜w,,,10,名詞,一般,*,*,*,*,らこらこらこ,ラコラコラコ,ラコラコラコ
みくった,,,1000,名詞,一般,*,*,*,*,みくった,ミクッタ,ミクッタ
ておくら,,,100,名詞,一般,*,*,*,*,ておくら,テオクラ,テオクラ
ふぁぼ,,,100,名詞,一般,*,*,*,*,ふぁぼ,ファボ,ファボ
ておくら,,,100,名詞,一般,*,*,*,*,ておくら,テオクラ,テオクラ
うっあさ,,,100,名詞,一般,*,*,*,*,うっあさ,ウッアサ,ウッアサ
すやぽよ,,,100,名詞,一般,*,*,*,*,すやぽよ,スヤポヨ,スヤポヨ
(´(゜)ω(゜)｀),,,10,名詞,一般,*,*,*,*,,,
&lt;,,,10,名詞,一般,*,*,*,*,,,
&gt;,,,10,名詞,一般,*,*,*,*,,,
&amp;,,,10,名詞,一般,*,*,*,*,,,
&quot;,,,10,名詞,一般,*,*,*,*,,,
&apos;,,,10,名詞,一般,*,*,*,*,,,
node_modules,,,10,名詞,一般,*,*,*,*,node-modules,node-modules,node-modules
mikutter,,,100,名詞,一般,*,*,*,*,mikutter,mikutter,mikutter
cm3d2,,,100,名詞,一般,*,*,*,*,cm3d2,cm3d2,cm3d2
com3d2,,,100,名詞,一般,*,*,*,*,com3d2,com3d2,com3d2
absolute-ze.ro,,,10,名詞,一般,*,*,*,*,absolute-zero,absolute-zero,absolute-zero
maud.io,,,10,名詞,一般,*,*,*,*,maudio,maudio,maudio
:thinking_face:,,,10,名詞,一般,*,*,*,*,thinking-face,thinking-face,thinking-face
:akkiesoft_bridge:,,,10,名詞,一般,*,*,*,*,akkiesoft-bridge,akkiesoft-bridge,akkiesoft-bridge
:floating_egg:,,,10,名詞,一般,*,*,*,*,floating-egg,floating-egg,floating-egg
:mastodon_oops:,,,10,名詞,一般,*,*,*,*,mastodon-oops,mastodon-oops,mastodon-oops
:itiiti_hitono_icon_no_file_mei_mirutoka_teokure_desune:,,,10,名詞,一般,*,*,*,*,itiiti-hitono-icon-no-file-mei-mirutoka-teokure-desune,itiiti-hitono-icon-no-file-mei-mirutoka-teokure-desune,itiiti-hitono-icon-no-file-mei-mirutoka-teokure-desune
:arrow_following:,,,10,名詞,一般,*,*,*,*,arrow-following,arrow-following,arrow-following
:german_bird:,,,10,名詞,一般,*,*,*,*,german-bird,german-bird,german-bird
:icon_a:,,,10,名詞,一般,*,*,*,*,icon-a,icon-a,icon-a
:toshi_a_hage:,,,10,名詞,一般,*,*,*,*,tosia-hage,tosia-hage,tosia-hage
:toshi_a:,,,10,名詞,一般,*,*,*,*,toshi-a,toshi-a,toshi-a
:toshi_e:,,,10,名詞,一般,*,*,*,*,toshi-e,toshi-e,toshi-e
:thinking_yukari:,,,10,名詞,一般,*,*,*,*,thinking-yukari,thinking-yukari,thinking-yukari
:d250g2:,,,10,名詞,一般,*,*,*,*,d250g2,d250g2,d250g2
:toshi_o:,,,10,名詞,一般,*,*,*,*,toshi-o,toshi-o,toshi-o
:very_sad:,,,10,名詞,一般,*,*,*,*,very-sad,very-sad,very-sad
:matsuya_egg_dish:,,,10,名詞,一般,*,*,*,*,matsuya-egg-dish,matsuya-egg-dish,matsuya-egg-dish
:toshi_cha:,,,10,名詞,一般,*,*,*,*,toshi-cha,toshi-cha,toshi-cha
:toshi_waa:,,,10,名詞,一般,*,*,*,*,toshi-waa,toshi-waa,toshi-waa
:ok_yu_ko:,,,10,名詞,一般,*,*,*,*,ok-yuko,ok-yuko,ok-yuko
:toshi_h4o:,,,10,名詞,一般,*,*,*,*,toshi-h4o,toshi-h4o,toshi-h4o
:rainbow_mikutter:,,,10,名詞,一般,*,*,*,*,rainbow-mikutter,rainbow-mikutter,rainbow-mikutter
:tiger_bitou:,,,10,名詞,一般,*,*,*,*,tiger-bitou,tiger-bitou,tiger-bitou
:suiso_no_oto:,,,10,名詞,一般,*,*,*,*,suiso-no-oto,suiso-no-oto,suiso-no-oto
